Configuring posix-paths-0.2.1.0...
Building posix-paths-0.2.1.0...
Preprocessing library posix-paths-0.2.1.0...
[1 of 3] Compiling System.Posix.FilePath ( src/System/Posix/FilePath.hs, .stack-work/dist/x86_64-linux/Cabal-1.22.5.0/build/System/Posix/FilePath.o )
[2 of 3] Compiling System.Posix.Directory.Foreign ( .stack-work/dist/x86_64-linux/Cabal-1.22.5.0/build/System/Posix/Directory/Foreign.hs, .stack-work/dist/x86_64-linux/Cabal-1.22.5.0/build/System/Posix/Directory/Foreign.o )
[3 of 3] Compiling System.Posix.Directory.Traversals ( src/System/Posix/Directory/Traversals.hs, .stack-work/dist/x86_64-linux/Cabal-1.22.5.0/build/System/Posix/Directory/Traversals.o )

src/System/Posix/Directory/Traversals.hs:23:1: Warning:
    The import of ‘Control.Applicative’ is redundant
      except perhaps to import instances from ‘Control.Applicative’
    To import instances alone, use: import Control.Applicative()
In-place registering posix-paths-0.2.1.0...
Installing library in /home/zhao/Downloads/1
Semester/Cloud_haskell/CS7050-new/.stack-work/install/x86_64-linux/lts-6.3/7.10.3/lib/x86_64-linux-ghc-7.10.3/posix-paths-0.2.1.0-4rW8MWUqp41FPAbJSoQWZt
Registering posix-paths-0.2.1.0...
